r_final_proj
…
ny2022 = left_join(covid2022, merge2022, by = c("county", "year"))

Regression Test: 2021

SES factors vs. # covid cases

* predictors = median income, number of minorities (black + hispanic),
segregation score, and ses rank

* outcome = # covid cases

ny2021

## # A tibble: 62 × 24
## # Groups:   county [62]
##    county       year new_c…¹ covid…² vax_d…³ state longe…⁴ qol_r healt…⁵ clini…⁶
##    <chr>       <dbl>   <dbl>   <dbl>   <dbl> <chr>   <dbl> <dbl>   <dbl>   <dbl>
##  1 Albany       2021   29791  731741  238864 New …      17    15      13       5
##  2 Allegany     2021    5129  157205   22241 New …      53    33      47      54
##  3 Bronx        2021  191950 4427657 1099405 New …      39    62      28      62
##  4 Broome       2021   25625  611642  128398 New …      47    47      35      16
##  5 Cattaraugus  2021    8988  157072   41915 New …      55    61      60      59
##  6 Cayuga       2021    8554  206707   47644 New …      28    27      46      42
##  7 Chautauqua   2021   14198  291721   77579 New …      52    52      54      23
##  8 Chemung      2021   10697  232454   47044 New …      62    43      51      30
##  9 Chenango     2021    5535  123564   29994 New …      57    38      45      36
## 10 Clinton      2021    8899  228775   56152 New …      23    49      41      29
## # … with 52 more rows, 14 more variables: ses_r <dbl>, env_r <dbl>,
## #   median_income <dbl>, segregation_score <dbl>, number_uninsured_135 <dbl>,
## #   number_uninsured_139 <dbl>, n_black <dbl>, n_aian <dbl>, n_asian <dbl>,
## #   n_nhpi <dbl>, n_hispanic <dbl>, n_white <dbl>, n_uninsured <dbl>,
## #   n_minority <dbl>, and abbreviated variable names ¹​new_cases, ²​covid_tests,
## #   ³​vax_dose1, ⁴​longevity_r, ⁵​health_beh_r, ⁶​clinical_care_r
…
